{
  "prepare_queue": {
    "installed": [],
    "uninstalled": []
  },
  "config_munge": {
    "files": {}
  },
  "installed_plugins": {
    "com.microblink.BlinkIdScanner": {
      "CAMERA_USAGE_DESCRIPTION": " ",
      "PACKAGE_NAME": "com.crmsuite.crmsuitemobile"
    },
    "cordova-plugin-app-version": {
      "PACKAGE_NAME": "com.crmsuite.crmsuitemobile"
    },
    "cordova-plugin-cache-clear": {
      "PACKAGE_NAME": "com.crmsuite.crmsuitemobile"
    },
    "cordova-plugin-camera": {
      "PACKAGE_NAME": "com.crmsuite.crmsuitemobile"
    },
    "cordova-plugin-compat": {
      "PACKAGE_NAME": "com.crmsuite.crmsuitemobile"
    },
    "cordova-plugin-device": {
      "PACKAGE_NAME": "com.crmsuite.crmsuitemobile"
    },
    "cordova-plugin-dialogs": {
      "PACKAGE_NAME": "com.crmsuite.crmsuitemobile"
    },
    "cordova-plugin-disable-nsapptransportsecurity": {
      "PACKAGE_NAME": "com.crmsuite.crmsuitemobile"
    },
    "cordova-plugin-file": {
      "PACKAGE_NAME": "com.crmsuite.crmsuitemobile"
    },
    "cordova-plugin-file-transfer": {
      "PACKAGE_NAME": "com.crmsuite.crmsuitemobile"
    },
    "cordova-plugin-inappbrowser": {
      "PACKAGE_NAME": "com.crmsuite.crmsuitemobile"
    },
    "cordova-plugin-intercom": {
      "PACKAGE_NAME": "com.crmsuite.crmsuitemobile"
    },
    "cordova-plugin-media": {
      "PACKAGE_NAME": "com.crmsuite.crmsuitemobile"
    },
    "cordova-plugin-media-capture": {
      "PACKAGE_NAME": "com.crmsuite.crmsuitemobile"
    },
    "cordova-plugin-printer": {
      "PACKAGE_NAME": "com.crmsuite.crmsuitemobile"
    },
    "cordova-plugin-splashscreen": {
      "PACKAGE_NAME": "com.crmsuite.crmsuitemobile"
    },
    "cordova-plugin-statusbar": {
      "PACKAGE_NAME": "com.crmsuite.crmsuitemobile"
    },
    "cordova-plugin-touchid": {
      "PACKAGE_NAME": "com.crmsuite.crmsuitemobile"
    },
    "cordova-plugin-vibration": {
      "PACKAGE_NAME": "com.crmsuite.crmsuitemobile"
    },
    "cordova-plugin-whitelist": {
      "PACKAGE_NAME": "com.crmsuite.crmsuitemobile"
    },
    "cordova-plugin-wkwebview-engine": {
      "PACKAGE_NAME": "com.crmsuite.crmsuitemobile"
    },
    "ionic-plugin-keyboard": {
      "PACKAGE_NAME": "com.crmsuite.crmsuitemobile"
    },
    "urbanairship-cordova": {
      "PACKAGE_NAME": "com.crmsuite.crmsuitemobile"
    }
  },
  "dependent_plugins": {}
}